[Header],,,,,,,,,,
IEMFileVersion,4,,,,,,,,,
Date,181217,,,,,,,,,
Workflow,GenerateFASTQ,,,,,,,,,
Application,FASTQ Only,,,,,,,,,
Assay,Nextera XT,,,,,,,,,
Description,MS2_Run_182,,,,,,,,,
Chemistry,Amplicon,,,,,,,,,
,,,,,,,,,,
[Reads],,,,,,,,,,
301,,,,,,,,,,
301,,,,,,,,,,
,,,,,,,,,,
[Settings],,,,,,,,,,
ReverseComplement,0,,,,,,,,,
kmer,31,,,,,,,,,
Adapter,CTGTCTCTTATACACATCT,,,,,,,,,
,,,,,,,,,,
[Data],,,,,,,,,,
Sample_ID,Sample_Name,Sample_Plate,Sample_Well,I7_Index_ID,index,I5_Index_ID,index2,GenomeFolder,Sample_Project,Description
181217_18-8526_JSNZ_jep-jepD,,,,N705,GGACTCCT,S505,GTAAGGAG,,huberc,
181217_18-8634_SiB 10,,,,N707,CTCTCTAC,S513,TCGACTAG,,boettchers,
181217_18-8635_SiB 11,,,,N707,CTCTCTAC,S515,TTCTAGCT,,boettchers,
181217_18-8636_SiB 12,,,,N707,CTCTCTAC,S516,CCTAGAGT,,boettchers,
181217_18-8637_SiB 13,,,,N707,CTCTCTAC,S517,GCGTAAGA,,boettchers,
181217_18-9011_UW19402,,,,N722,ATGCGCAG,S518,CTATTAAG,,benderj,
181217_18-9012_UW19403,,,,N722,ATGCGCAG,S520,AAGGCTAT,,benderj,
181217_18-9013_UW19407,,,,N722,ATGCGCAG,S521,GAGCCTTA,,benderj,
181217_18-9014_UW19408,,,,N722,ATGCGCAG,S522,TTATGCGA,,benderj,
181217_18-9015_UW19410,,,,N723,TAGCGCTC,S513,TCGACTAG,,benderj,
181217_18-9016_UW19412,,,,N723,TAGCGCTC,S515,TTCTAGCT,,benderj,
181217_18-9017_UW19415,,,,N723,TAGCGCTC,S516,CCTAGAGT,,benderj,
181217_18-9018_UW19417,,,,N723,TAGCGCTC,S517,GCGTAAGA,,benderj,
181217_18-9019_UW19419,,,,N723,TAGCGCTC,S518,CTATTAAG,,benderj,
181217_18-9020_UW19420,,,,N723,TAGCGCTC,S520,AAGGCTAT,,benderj,
181217_18-9021_UW19423,,,,N723,TAGCGCTC,S521,GAGCCTTA,,benderj,
181217_18-9022_UW19424,,,,N723,TAGCGCTC,S522,TTATGCGA,,benderj,
181217_18-9023_UW19431,,,,N724,ACTGAGCG,S513,TCGACTAG,,benderj,
181217_18-9024_UW19442,,,,N724,ACTGAGCG,S515,TTCTAGCT,,benderj,
181217_18-9025_UW19446,,,,N724,ACTGAGCG,S516,CCTAGAGT,,benderj,
181217_18-9026_UW19472,,,,N724,ACTGAGCG,S517,GCGTAAGA,,benderj,
181217_18-9027_UW19473,,,,N724,ACTGAGCG,S518,CTATTAAG,,benderj,
181217_18-9028_UW19475,,,,N724,ACTGAGCG,S520,AAGGCTAT,,benderj,
181217_18-9029_UW19484,,,,N724,ACTGAGCG,S521,GAGCCTTA,,benderj,
181217_18-9030_UW18077,,,,N724,ACTGAGCG,S522,TTATGCGA,,benderj,
181217_18-9031_UW18129,,,,N726,CCTAAGAC,S513,TCGACTAG,,benderj,
181217_18-9032_UW18213,,,,N726,CCTAAGAC,S515,TTCTAGCT,,benderj,
181217_18-9033_A1338-1,,,,N715,ATCTCAGG,S520,AAGGCTAT,,heunerk,
181217_18-9034_A1341-1,,,,N715,ATCTCAGG,S521,GAGCCTTA,,heunerk,
181217_18-9040_Gern-Mikrobiom A1,,,,N728,TGCAGCTA,S513,TCGACTAG,,RKI,
181217_18-9041_Gern-Mikrobiom B1,,,,N728,TGCAGCTA,S515,TTCTAGCT,,RKI,
181217_18-9042_Gern-Mikrobiom C1,,,,N728,TGCAGCTA,S516,CCTAGAGT,,RKI,
181217_18-9043_Gern-Mikrobiom D1,,,,N728,TGCAGCTA,S517,GCGTAAGA,,RKI,
181217_18-9044_Gern-Mikrobiom E1,,,,N728,TGCAGCTA,S518,CTATTAAG,,RKI,
181217_18-9045_Gern-Mikrobiom F1,,,,N728,TGCAGCTA,S520,AAGGCTAT,,RKI,
181217_18-9046_Gern-Mikrobiom G1,,,,N728,TGCAGCTA,S521,GAGCCTTA,,RKI,
181217_18-9047_Gern-Mikrobiom H1,,,,N728,TGCAGCTA,S522,TTATGCGA,,RKI,
